{
  "projects": [
    {
      "title": "President Plaza",
      "type": "Многофункциональный центр",
      "image": "sprite1.jpg",
      "lat": 55.741227,
      "lng": 37.532006
    },
    {
      "title": "Технопарк Сбербанк",
      "type": "Проект студии Захи Хадид",
      "image": "sprite2.jpg",
      "lat": 55.691581,
      "lng": 37.347120
    },
    {
      "title": "ЦОД Сбербанк",
      "type": "Центр обработки данных",
      "image": "sprite3.jpg",
      "lat": 55.688108,
      "lng": 37.368718
    },
    {
      "title": "Санаторий МРИЯ",
      "type": "Курорт premium-класса",
      "image": "sprite4.jpg",
      "lat": 44.397002,
      "lng": 33.941171
    }
  ]
}
